{
    "key": "group_5f812509e563c",
    "title": "Event Post Type",
    "fields": [
        {
            "key": "field_5f81251266761",
            "label": "Event Date",
            "name": "event_date",
            "type": "date_picker",
            "instructions": "",
            "required": 1,
            "conditional_logic": 0,
            "wrapper": {
                "width": "",
                "class": "",
                "id": ""
            },
            "display_format": "F j, Y",
            "return_format": "y-m-d",
            "first_day": 0
        },
        {
            "key": "field_5f83d39d6b838",
            "label": "Event End Date",
            "name": "event_end_date",
            "type": "date_picker",
            "instructions": "Optional",
            "required": 0,
            "conditional_logic": 0,
            "wrapper": {
                "width": "",
                "class": "",
                "id": ""
            },
            "display_format": "F j, Y",
            "return_format": "y-m-d",
            "first_day": 0
        },
        {
            "key": "field_5f8b8e29628e4",
            "label": "Event Type",
            "name": "event_type",
            "type": "text",
            "instructions": "",
            "required": 0,
            "conditional_logic": 0,
            "wrapper": {
                "width": "",
                "class": "",
                "id": ""
            },
            "default_value": "",
            "placeholder": "",
            "prepend": "",
            "append": "",
            "maxlength": ""
        },
        {
            "key": "field_5f83d2c26733a",
            "label": "All Day Event",
            "name": "all_day",
            "type": "true_false",
            "instructions": "This will hide the time from any templates.",
            "required": 0,
            "conditional_logic": 0,
            "wrapper": {
                "width": "",
                "class": "",
                "id": ""
            },
            "message": "Check this box if this is an all day event",
            "default_value": 0,
            "ui": 0,
            "ui_on_text": "",
            "ui_off_text": ""
        },
        {
            "key": "field_5f81254d66762",
            "label": "Event Time",
            "name": "event_time",
            "type": "time_picker",
            "instructions": "Select the entire text content and hit \"Delete\" on your keyboard to display the time as \"TBD\"",
            "required": 0,
            "conditional_logic": 0,
            "wrapper": {
                "width": "",
                "class": "",
                "id": ""
            },
            "display_format": "g:i a",
            "return_format": "g:i a"
        },
        {
            "key": "field_5f8125aa66763",
            "label": "Location",
            "name": "location",
            "type": "text",
            "instructions": "A general location where the event will take place",
            "required": 0,
            "conditional_logic": 0,
            "wrapper": {
                "width": "",
                "class": "",
                "id": ""
            },
            "default_value": "",
            "placeholder": "",
            "prepend": "",
            "append": "",
            "maxlength": ""
        },
        {
            "key": "field_5f8125d881e09",
            "label": "Styled Button Link",
            "name": "large_link",
            "type": "link",
            "instructions": "\"Register\"",
            "required": 0,
            "conditional_logic": 0,
            "wrapper": {
                "width": "",
                "class": "",
                "id": ""
            },
            "return_format": "array"
        },
        {
            "key": "field_5f8125f981e0a",
            "label": "Plain Link",
            "name": "small_link",
            "type": "link",
            "instructions": "Learn More >",
            "required": 0,
            "conditional_logic": 0,
            "wrapper": {
                "width": "",
                "class": "",
                "id": ""
            },
            "return_format": "array"
        }
    ],
    "location": [
        [
            {
                "param": "post_type",
                "operator": "==",
                "value": "event"
            }
        ]
    ],
    "menu_order": 0,
    "position": "normal",
    "style": "default",
    "label_placement": "top",
    "instruction_placement": "label",
    "hide_on_screen": "",
    "active": true,
    "description": "",
    "modified": 1602981429
}